ABL1
ABL2
ACKR3
ACTB
ACTG1
ACVR1
ACVR1B
ACVR1C
ACVR2A
ACVR2B
ADAM17
ADCY1
ADCY2
ADCY3
ADCY4
ADCY5
ADCY6
ADCY7
ADCY8
ADCY9
ADCYAP1R1
ADORA1
ADORA2A
ADORA2B
ADORA3
ADRA1A
ADRA1B
ADRA1D
ADRA2A
ADRA2B
ADRA2C
ADRB1
ADRB2
ADRB3
AFP
AGAP2
AGRN
AGTR1
AGTR2
AJUBA
AKT1
AKT1S1
AKT2
AKT3
ALCAM
ALDOA
AMH
AMHR2
AMOT
ANGPT1
ANGPT2
ANGPT4
APBB1IP
APC
APC2
APH1A
APH1B
APLNR
ARAF
ARAP3
AREG
ARF6
ARNT
ARRB1
ARRB2
ATF2
ATF4
ATF6B
ATG12
ATM
ATP2A1
ATP2A2
ATP2A3
ATP2B1
ATP2B2
ATP2B3
ATP2B4
AVPR1A
AVPR1B
AVPR2
AXIN1
AXIN2
BAD
BAG4
BAMBI
BBC3
BCAR1
BCL2
BCL2L1
BCL2L11
BCL3
BCL6
BDKRB1
BDKRB2
BDNF
BIRC2
BIRC3
BIRC5
BMP2
BMP4
BMP5
BMP6
BMP7
BMP8A
BMP8B
BMPR1A
BMPR1B
BMPR2
BNIP3
BRAF
BRAP
BRCA1
BRS3
BTC
BTRC
C3AR1
C5AR1
CAB39
CAB39L
CACNA1A
CACNA1B
CACNA1C
CACNA1D
CACNA1E
CACNA1F
CACNA1G
CACNA1H
CACNA1I
CACNA1S
CACNA2D1
CACNA2D2
CACNA2D3
CACNA2D4
CACNB1
CACNB2
CACNB3
CACNB4
CACNG1
CACNG2
CACNG3
CACNG4
CACNG5
CACNG6
CACNG7
CACNG8
CACYBP
CADM1
CADM3
CALCR
CALCRL
CALM1
CALM2
CALM3
CALML3
CALML5
CALML6
CAMK2A
CAMK2B
CAMK2D
CAMK2G
CAMK4
CASP10
CASP3
CASP7
CASP8
CASP9
CAT
CBL
CBLB
CBLC
CCKAR
CCKBR
CCL1
CCL11
CCL13
CCL14
CCL15
CCL16
CCL17
CCL18
CCL19
CCL2
CCL20
CCL21
CCL22
CCL23
CCL24
CCL25
CCL26
CCL27
CCL28
CCL3
CCL3L1
CCL3L3
CCL4
CCL4L1
CCL4L2
CCL5
CCL7
CCL8
CCNB1
CCNB2
CCNB3
CCND1
CCND2
CCND3
CCNE1
CCNE2
CCNG2
CCR1
CCR10
CCR2
CCR3
CCR4
CCR5
CCR6
CCR7
CCR8
CCR9
CD14
CD19
CD2
CD22
CD226
CD27
CD274
CD276
CD28
CD34
CD36
CD38
CD4
CD40
CD40LG
CD44
CD47
CD58
CD6
CD70
CD80
CD86
CD8A
CD8B
CD99
CDC25B
CDC37
CDC42
CDH1
CDH15
CDH2
CDH3
CDH4
CDH5
CDIPT
CDK2
CDK4
CDK6
CDKN1A
CDKN1B
CDKN2B
CDKN2D
CDS1
CDS2
CEBPB
CER1
CFLAR
CGA
CHAD
CHD8
CHRD
CHRM1
CHRM2
CHRM3
CHRM4
CHRM5
CHRNA1
CHRNA10
CHRNA2
CHRNA3
CHRNA4
CHRNA5
CHRNA6
CHRNA7
CHRNA9
CHRNB1
CHRNB2
CHRNB3
CHRNB4
CHRND
CHRNE
CHRNG
CHUK
CIR1
CISH
CLCF1
CLDN1
CLDN10
CLDN11
CLDN14
CLDN15
CLDN16
CLDN17
CLDN18
CLDN19
CLDN2
CLDN20
CLDN22
CLDN23
CLDN24
CLDN25
CLDN3
CLDN4
CLDN5
CLDN6
CLDN7
CLDN8
CLDN9
CNR1
CNR2
CNTF
CNTFR
CNTN1
CNTN2
CNTNAP1
CNTNAP2
COL11A1
COL11A2
COL1A1
COL1A2
COL24A1
COL27A1
COL2A1
COL3A1
COL4A1
COL4A2
COL4A3
COL4A4
COL4A5
COL4A6
COL5A1
COL5A2
COL5A3
COL6A1
COL6A2
COL6A3
COL6A5
COL6A6
COMP
CRB1
CRB2
CREB1
CREB3
CREB3L1
CREB3L2
CREB3L3
CREB3L4
CREB5
CREBBP
CRHR1
CRHR2
CRK
CRKL
CRLF2
CRTC2
CSF1
CSF1R
CSF2
CSF2RA
CSF2RB
CSF3
CSF3R
CSH1
CSH2
CSNK1A1
CSNK1A1L
CSNK1D
CSNK1E
CSNK1G1
CSNK1G2
CSNK1G3
CSNK2A1
CSNK2A2
CSNK2B
CTBP1
CTBP2
CTF1
CTGF
CTLA4
CTNNA1
CTNNA2
CTNNA3
CTNNB1
CTNNBIP1
CTNND1
CTSG
CUL1
CUL2
CX3CL1
CX3CR1
CXCL1
CXCL10
CXCL11
CXCL12
CXCL13
CXCL14
CXCL16
CXCL2
CXCL3
CXCL5
CXCL6
CXCL8
CXCL9
CXCR1
CXCR2
CXCR3
CXCR4
CXCR5
CXCR6
CXXC4
CYBB
CYSLTR1
CYSLTR2
DAAM1
DAAM2
DAG1
DAXX
DCN
DDIT3
DDIT4
DGKA
DGKB
DGKD
DGKE
DGKG
DGKH
DGKI
DGKQ
DGKZ
DHH
DKK1
DKK2
DKK4
DLG1
DLG2
DLG3
DLG4
DLL1
DLL3
DLL4
DNM1L
DOCK4
DRD1
DRD2
DRD3
DRD4
DRD5
DTX1
DTX2
DTX3
DTX3L
DTX4
DUSP1
DUSP10
DUSP16
DUSP2
DUSP3
DUSP4
DUSP5
DUSP6
DUSP7
DUSP8
DUSP9
DVL1
DVL2
DVL3
E2F4
E2F5
ECSIT
EDA
EDA2R
EDAR
EDN1
EDNRA
EDNRB
EFNA1
EFNA2
EFNA3
EFNA4
EFNA5
EGF
EGFR
EGLN1
EGLN2
EGLN3
EIF4B
EIF4E
EIF4E1B
EIF4E2
EIF4EBP1
ELK1
ELK4
ENO1
ENO2
ENO3
EP300
EPHA2
EPO
EPOR
ERBB2
ERBB3
ERBB4
EREG
ESAM
ETS1
ETS2
EXOC2
F11R
F2
F2R
F2RL1
F2RL2
F2RL3
FADD
FARP2
FAS
FASLG
FBXO25
FBXO32
FBXW11
FGF1
FGF10
FGF11
FGF12
FGF13
FGF14
FGF16
FGF17
FGF18
FGF19
FGF2
FGF20
FGF21
FGF22
FGF23
FGF3
FGF4
FGF5
FGF6
FGF7
FGF8
FGF9
FGFR1
FGFR2
FGFR3
FGFR4
FIGF
FLNA
FLNB
FLNC
FLT1
FLT3
FLT3LG
FLT4
FN1
FOS
FOSL1
FOXG1
FOXO1
FOXO3
FOXO4
FOXO6
FPR1
FPR2
FPR3
FRAT1
FRAT2
FRMD1
FRMD6
FSHB
FSHR
FST
FYB
FZD1
FZD10
FZD2
FZD3
FZD4
FZD5
FZD6
FZD7
FZD8
FZD9
G6PC
G6PC2
G6PC3
GAB1
GAB2
GABARAP
GABARAPL1
GABARAPL2
GABBR1
GABBR2
GABRA1
GABRA2
GABRA3
GABRA4
GABRA5
GABRA6
GABRB1
GABRB2
GABRB3
GABRD
GABRE
GABRG1
GABRG2
GABRG3
GABRP
GABRQ
GABRR1
GABRR2
GABRR3
GADD45A
GADD45B
GADD45G
GALR1
GALR2
GALR3
GAPDH
GAS1
GCGR
GDF5
GDF6
GDF7
GH1
GH2
GHR
GHRHR
GHSR
GIPR
GLG1
GLI1
GLI2
GLI3
GLP1R
GLP2R
GLRA1
GLRA2
GLRA3
GLRB
GNA11
GNA12
GNA14
GNA15
GNAI1
GNAI2
GNAI3
GNAL
GNAO1
GNAQ
GNAS
GNB1
GNB2
GNB3
GNB4
GNB5
GNG10
GNG11
GNG12
GNG13
GNG2
GNG3
GNG4
GNG5
GNG7
GNG8
GNGT1
GNGT2
GNRHR
GP1BA
GP1BB
GP5
GP6
GP9
GPC4
GPR156
GPR35
GPR50
GPR83
GRB2
GRIA1
GRIA2
GRIA3
GRIA4
GRID1
GRID2
GRIK1
GRIK2
GRIK3
GRIK4
GRIK5
GRIN1
GRIN2A
GRIN2B
GRIN2C
GRIN2D
GRIN3A
GRIN3B
GRM1
GRM2
GRM3
GRM4
GRM5
GRM6
GRM7
GRM8
GRPR
GSK3B
GYS1
GYS2
GZMA
HBEGF
HCRTR1
HCRTR2
HDAC1
HDAC2
HES1
HES5
HGF
HHIP
HIF1A
HK1
HK2
HK3
HKDC1
HMMR
HMOX1
HOMER1
HOMER2
HOMER3
HRAS
HRH1
HRH2
HRH3
HRH4
HSP90AA1
HSP90AB1
HSP90B1
HSPA1A
HSPA1B
HSPA1L
HSPA2
HSPA6
HSPA8
HSPB1
HSPG2
HTR1A
HTR1B
HTR1D
HTR1E
HTR1F
HTR2A
HTR2B
HTR2C
HTR4
HTR5A
HTR6
HTR7
IBSP
ICAM1
ICAM2
ICAM3
ICOS
ICOSLG
ID1
ID2
ID3
ID4
IFNA1
IFNA10
IFNA13
IFNA14
IFNA16
IFNA17
IFNA2
IFNA21
IFNA4
IFNA5
IFNA6
IFNA7
IFNA8
IFNAR1
IFNAR2
IFNB1
IFNE
IFNG
IFNGR1
IFNGR2
IFNK
IFNL1
IFNL2
IFNL3
IFNLR1
IFNW1
IGF1
IGF1R
IHH
IKBKB
IKBKG
IL10
IL10RA
IL10RB
IL11
IL11RA
IL12A
IL12B
IL12RB1
IL12RB2
IL13
IL13RA1
IL13RA2
IL15
IL15RA
IL17A
IL17B
IL17RA
IL17RB
IL18
IL18R1
IL18RAP
IL19
IL1A
IL1B
IL1R1
IL1R2
IL1RAP
IL2
IL20
IL20RA
IL20RB
IL21
IL21R
IL22
IL22RA1
IL22RA2
IL23A
IL23R
IL24
IL25
IL26
IL2RA
IL2RB
IL2RG
IL3
IL3RA
IL4
IL4R
IL5
IL5RA
IL6
IL6R
IL6ST
IL7
IL7R
IL9
IL9R
IMPA1
IMPA2
IMPAD1
INADL
INHBA
INHBB
INHBC
INHBE
INPP1
INPP4A
INPP4B
INPP5A
INPP5B
INPP5D
INPP5E
INPP5J
INPP5K
INPPL1
INS
INSR
IPPK
IRF9
IRS1
IRS2
IRS4
ITCH
ITGA1
ITGA10
ITGA11
ITGA2
ITGA2B
ITGA3
ITGA4
ITGA5
ITGA6
ITGA7
ITGA8
ITGA9
ITGAL
ITGAM
ITGAV
ITGB1
ITGB2
ITGB3
ITGB4
ITGB5
ITGB6
ITGB7
ITGB8
ITPK1
ITPKA
ITPKB
ITPKC
ITPR1
ITPR2
ITPR3
JAG1
JAG2
JAK1
JAK2
JAK3
JAM2
JAM3
JUN
JUNB
JUND
KAT2A
KAT2B
KDR
KISS1R
KIT
KITLG
KLF2
KRAS
KRIT1
KSR1
L1CAM
LAMA1
LAMA2
LAMA3
LAMA4
LAMA5
LAMB1
LAMB2
LAMB3
LAMB4
LAMC1
LAMC2
LAMC3
LAMTOR3
LAT
LATS1
LATS2
LCP2
LDHA
LEF1
LEFTY1
LEFTY2
LEP
LEPR
LFNG
LHB
LHCGR
LIF
LIFR
LIMD1
LLGL1
LLGL2
LPAR1
LPAR2
LPAR3
LPAR4
LPAR5
LPAR6
LRP2
LRP5
LRP6
LRRC4
LRRC4B
LRRC4C
LTA
LTB
LTB4R
LTB4R2
LTBP1
LTBR
MADCAM1
MAG
MAGI1
MAGI2
MAGI3
MAML1
MAML2
MAML3
MAP2K1
MAP2K2
MAP2K3
MAP2K4
MAP2K5
MAP2K6
MAP2K7
MAP3K1
MAP3K11
MAP3K12
MAP3K13
MAP3K14
MAP3K2
MAP3K3
MAP3K4
MAP3K5
MAP3K6
MAP3K7
MAP3K8
MAP4K1
MAP4K2
MAP4K3
MAP4K4
MAPK1
MAPK10
MAPK11
MAPK12
MAPK13
MAPK14
MAPK3
MAPK7
MAPK8
MAPK8IP1
MAPK8IP2
MAPK8IP3
MAPK9
MAPKAPK2
MAPKAPK3
MAPKAPK5
MAPT
MAS1
MAX
MC1R
MC2R
MC3R
MC4R
MC5R
MCHR1
MCHR2
MCL1
MDM2
MECOM
MEF2C
MET
MFNG
MKNK1
MKNK2
MLKL
MLLT4
MLNR
MLST8
MMP14
MMP3
MMP7
MMP9
MOB1A
MOB1B
MOS
MPL
MPP5
MPZ
MPZL1
MRAS
MTCP1
MTM1
MTNR1A
MTNR1B
MTOR
MYB
MYC
MYLK
MYLK2
MYLK3
MYLK4
NCAM1
NCAM2
NCK1
NCK2
NCOR2
NCSTN
NEGR1
NEO1
NF1
NF2
NFASC
NFATC1
NFATC2
NFATC3
NFATC4
NFKB1
NFKB2
NFKBIA
NGF
NGFR
NKD1
NKD2
NLGN1
NLGN2
NLGN3
NLGN4X
NLK
NMBR
NMUR1
NMUR2
NOD2
NODAL
NOG
NOS1
NOS2
NOS3
NOTCH1
NOTCH2
NOTCH3
NOTCH4
NOX1
NOX3
NPBWR1
NPBWR2
NPFFR1
NPFFR2
NPPA
NPY1R
NPY2R
NPY4R
NPY5R
NR3C1
NR4A1
NRAS
NRCAM
NRG1
NRG2
NRG3
NRG4
NRXN1
NRXN2
NRXN3
NTF3
NTF4
NTNG1
NTNG2
NTRK1
NTRK2
NTSR1
NTSR2
NUMB
NUMBL
OCLN
OCRL
OPRD1
OPRK1
OPRL1
OPRM1
ORAI1
ORAI2
ORAI3
OSM
OSMR
OXTR
P2RX1
P2RX2
P2RX3
P2RX4
P2RX5
P2RX6
P2RX7
P2RY1
P2RY10
P2RY11
P2RY13
P2RY14
P2RY2
P2RY4
P2RY6
P2RY8
PAK1
PAK2
PAK3
PAK4
PAK6
PAK7
PARD3
PARD6A
PARD6B
PARD6G
PCK1
PCK2
PDCD1
PDCD1LG2
PDE1A
PDE1B
PDE1C
PDGFA
PDGFB
PDGFC
PDGFD
PDGFRA
PDGFRB
PDHA1
PDHA2
PDHB
PDK1
PDPK1
PECAM1
PF4
PF4V1
PFKFB1
PFKFB2
PFKFB3
PFKFB4
PFKL
PFN1
PFN2
PFN3
PFN4
PGAM5
PGF
PGK1
PHKA1
PHKA2
PHKB
PHKG1
PHKG2
PHLPP1
PHLPP2
PI4K2A
PI4K2B
PI4KA
PI4KB
PIAS1
PIAS2
PIAS3
PIAS4
PIK3AP1
PIK3C2A
PIK3C2B
PIK3C2G
PIK3C3
PIK3CA
PIK3CB
PIK3CD
PIK3CG
PIK3R1
PIK3R2
PIK3R3
PIK3R5
PIKFYVE
PIM1
PIP4K2A
PIP4K2B
PIP4K2C
PIP5K1A
PIP5K1B
PIP5K1C
PITX2
PKN1
PKN2
PKN3
PLA1A
PLA2G10
PLA2G12A
PLA2G12B
PLA2G16
PLA2G1B
PLA2G2A
PLA2G2C
PLA2G2D
PLA2G2E
PLA2G2F
PLA2G3
PLA2G4A
PLA2G4B
PLA2G4C
PLA2G4D
PLA2G4E
PLA2G4F
PLA2G5
PLA2G6
PLCB1
PLCB2
PLCB3
PLCB4
PLCD1
PLCD3
PLCD4
PLCE1
PLCG1
PLCG2
PLCZ1
PLD1
PLD2
PLEKHO2
PLG
PLK1
PLK2
PLK3
PLK4
PLN
PORCN
PPARD
PPBP
PPIF
PPM1A
PPM1B
PPP1CA
PPP1CB
PPP1CC
PPP2CA
PPP2CB
PPP2R1A
PPP2R1B
PPP2R2A
PPP2R2B
PPP2R2C
PPP2R2D
PPP2R3A
PPP2R3B
PPP2R3C
PPP2R5A
PPP2R5B
PPP2R5C
PPP2R5D
PPP2R5E
PPP3CA
PPP3CB
PPP3CC
PPP3R1
PPP3R2
PPP5C
PPP5D1
PRICKLE1
PRICKLE2
PRKAA1
PRKAA2
PRKAB1
PRKAB2
PRKACA
PRKACB
PRKACG
PRKAG1
PRKAG2
PRKAG3
PRKCA
PRKCB
PRKCG
PRKCI
PRKCZ
PRKD1
PRKD2
PRKD3
PRKX
PRL
PRLHR
PRLR
PRMT1
PRSS1
PRSS2
PRSS3
PSEN1
PSEN2
PSENEN
PTAFR
PTCH1
PTCH2
PTCRA
PTEN
PTGDR
PTGER1
PTGER2
PTGER3
PTGER4
PTGFR
PTGIR
PTGS2
PTH1R
PTH2R
PTK2
PTK2B
PTPN11
PTPN5
PTPN6
PTPN7
PTPRC
PTPRF
PTPRM
PTPRR
PVR
PVRL1
PVRL2
PVRL3
PXN
RAB23
RAB5A
RAB5B
RAB5C
RAC1
RAC2
RAC3
RAF1
RAG1
RAG2
RALA
RALB
RALBP1
RALGDS
RAP1A
RAP1B
RAP1GAP
RAPGEF1
RAPGEF2
RAPGEF3
RAPGEF4
RAPGEF5
RAPGEF6
RASA1
RASA2
RASA3
RASA4
RASA4B
RASAL1
RASAL2
RASAL3
RASGRF1
RASGRF2
RASGRP1
RASGRP2
RASGRP3
RASGRP4
RASSF1
RASSF5
RASSF6
RBL1
RBL2
RBPJ
RBPJL
RBX1
REL
RELA
RELB
RELN
RELT
RFNG
RGL1
RGL2
RGS14
RHEB
RHOA
RICTOR
RIN1
RIPK1
RIPK3
ROCK1
ROCK2
RPS6
RPS6KA1
RPS6KA2
RPS6KA3
RPS6KA4
RPS6KA5
RPS6KA6
RPS6KB1
RPS6KB2
RPTOR
RRAGA
RRAGB
RRAGC
RRAGD
RRAS
RRAS2
RUVBL1
RXFP1
RXFP2
RXRA
RYR1
RYR2
RYR3
S1PR1
S1PR2
S1PR3
S1PR4
S1PR5
SAV1
SCRIB
SCTR
SDC1
SDC2
SDC3
SDC4
SELE
SELL
SELP
SELPLG
SENP2
SERPINE1
SETD7
SFRP1
SFRP2
SFRP4
SFRP5
SGK1
SGK2
SGK3
SH2D2A
SHC1
SHC2
SHC3
SHC4
SHH
SIAH1
SIGLEC1
SIPA1
SIPA1L1
SIPA1L2
SIPA1L3
SIRT1
SKAP1
SKP1
SKP2
SLC25A31
SLC25A4
SLC25A5
SLC25A6
SLC2A1
SLC2A4
SLC8A1
SLC8A2
SLC8A3
SMAD1
SMAD2
SMAD3
SMAD4
SMAD5
SMAD6
SMAD7
SMAD9
SMO
SMURF1
SMURF2
SNAI2
SNW1
SOCS1
SOCS2
SOCS3
SOCS4
SOCS5
SOCS7
SOD2
SOS1
SOS2
SOST
SOX17
SOX2
SP1
SPHK1
SPHK2
SPN
SPP1
SPRED1
SPRED2
SPRED3
SPRY1
SPRY2
SPRY4
SRC
SRF
SSTR1
SSTR2
SSTR3
SSTR4
SSTR5
STAM
STAM2
STAT1
STAT2
STAT3
STAT4
STAT5A
STAT5B
STAT6
STIM1
STIM2
STK11
STK3
STK36
STK4
STMN1
STRADA
SUFU
SV2A
SV2B
SV2C
SYK
SYNGAP1
SYNJ1
SYNJ2
TAAR1
TAAR2
TAAR5
TAAR6
TAAR8
TAAR9
TAB1
TAB2
TAB3
TACR1
TACR2
TACR3
TAOK1
TAOK2
TAOK3
TBK1
TBL1X
TBL1XR1
TBL1Y
TBXA2R
TCEB1
TCEB2
TCF7
TCF7L1
TCF7L2
TCL1A
TCL1B
TEAD1
TEAD2
TEAD3
TEAD4
TEK
TF
TFDP1
TFRC
TGFA
TGFB1
TGFB2
TGFB3
TGFBR1
TGFBR2
THBS1
THBS2
THBS3
THBS4
THEM4
THRA
THRB
TIAM1
TIGIT
TIMP1
TLN1
TLN2
TLR2
TLR4
TNC
TNF
TNFAIP3
TNFRSF10A
TNFRSF10B
TNFRSF10C
TNFRSF10D
TNFRSF11A
TNFRSF11B
TNFRSF12A
TNFRSF13B
TNFRSF13C
TNFRSF14
TNFRSF17
TNFRSF18
TNFRSF19
TNFRSF1A
TNFRSF1B
TNFRSF21
TNFRSF25
TNFRSF4
TNFRSF6B
TNFRSF8
TNFRSF9
TNFSF10
TNFSF11
TNFSF12
TNFSF13
TNFSF13B
TNFSF14
TNFSF15
TNFSF18
TNFSF4
TNFSF8
TNFSF9
TNN
TNNC1
TNNC2
TNR
TNXB
TP53
TP53BP2
TP73
TPO
TRADD
TRAF1
TRAF2
TRAF3
TRAF5
TRAF6
TRHR
TRPV1
TSC1
TSC2
TSHB
TSHR
TSLP
TSPO
TYK2
ULK1
ULK2
ULK3
USP7
UTS2R
VANGL1
VANGL2
VASP
VAV2
VCAM1
VCAN
VDAC1
VDAC2
VDAC3
VEGFA
VEGFB
VEGFC
VHL
VIPR1
VIPR2
VTCN1
VTN
VWF
WIF1
WNT1
WNT10A
WNT10B
WNT11
WNT16
WNT2
WNT2B
WNT3
WNT3A
WNT4
WNT5A
WNT5B
WNT6
WNT7A
WNT7B
WNT8A
WNT8B
WNT9A
WNT9B
WTIP
WWC1
WWTR1
XCL1
XCL2
XCR1
YAP1
YWHAB
YWHAE
YWHAG
YWHAH
YWHAQ
YWHAZ
ZAK
ZAP70
ZFYVE16
ZFYVE9
ZIC2
