Metabolism;Amino acid metabolism
Metabolism;Metabolism of cofactors and vitamins
Metabolism;Metabolism of other amino acids
Metabolism;Metabolism of cofactors and vitamins
Metabolism;Carbohydrate metabolism
Metabolism;Lipid metabolism
Organismal Systems;Excretory system
Metabolism;Energy metabolism
Metabolism;Amino acid metabolism
Metabolism;Carbohydrate metabolism
Metabolism;Carbohydrate metabolism
Genetic Information Processing;Translation
Genetic Information Processing;Replication and repair
Metabolism;Amino acid metabolism
Metabolism;Glycan biosynthesis and metabolism
Genetic Information Processing;Translation
Genetic Information Processing;Translation
Metabolism;Metabolism of other amino acids
Metabolism;Energy metabolism
Metabolism;Carbohydrate metabolism
Genetic Information Processing;Translation
Metabolism;Amino acid metabolism
Metabolism;Lipid metabolism
Genetic Information Processing;Folding, sorting and degradation
Organismal Systems;Immune system
Metabolism;Overview
Metabolism;Amino acid metabolism
Cellular Processes;Transport and catabolism
Organismal Systems;Circulatory system
Metabolism;Metabolism of other amino acids
Genetic Information Processing;Folding, sorting and degradation
Organismal Systems;Environmental adaptation
Metabolism;Metabolism of cofactors and vitamins
Cellular Processes;Cell growth and death
Metabolism;Carbohydrate metabolism
Human Diseases;Cancers
Human Diseases;Cancers
Metabolism;Metabolism of cofactors and vitamins
Metabolism;Lipid metabolism
Metabolism;Overview
Organismal Systems;Development
Metabolism;Overview
Metabolism;Xenobiotics biodegradation and metabolism
Metabolism;Overview
Organismal Systems;Immune system
Human Diseases;Infectious diseases
Human Diseases;Infectious diseases
Metabolism;Metabolism of cofactors and vitamins
Human Diseases;Neurodegenerative diseases
Metabolism;Lipid metabolism
Cellular Processes;Transport and catabolism
Human Diseases;Infectious diseases
Metabolism;Amino acid metabolism
Environmental Information Processing;Signal transduction
Metabolism;Amino acid metabolism
Human Diseases;Endocrine and metabolic diseases
Metabolism;Carbohydrate metabolism
Metabolism;Metabolism of terpenoids and polyketides
Organismal Systems;Immune system
Human Diseases;Infectious diseases
Human Diseases;Infectious diseases
Human Diseases;Infectious diseases
Human Diseases;Cancers
Metabolism;Amino acid metabolism
Human Diseases;Neurodegenerative diseases
Human Diseases;Cancers

Metabolism;Lipid metabolism
Human Diseases;Infectious diseases
Human Diseases;Infectious diseases
Cellular Processes;Cell growth and death
Metabolism;Carbohydrate metabolism
Cellular Processes;Cell growth and death
Environmental Information Processing;Signal transduction
Human Diseases;Cardiovascular diseases
Human Diseases;Cancers
Human Diseases;Neurodegenerative diseases
Organismal Systems;Endocrine system
Human Diseases;Cancers
Cellular Processes;Cell motility
Human Diseases;Cancers
Human Diseases;Infectious diseases
Human Diseases;Substance dependence
Metabolism;Carbohydrate metabolism
Organismal Systems;Excretory system
Human Diseases;Cancers
Metabolism;Carbohydrate metabolism
Cellular Processes;Cell growth and death
Organismal Systems;Endocrine system
Metabolism;Nucleotide metabolism
Metabolism;Carbohydrate metabolism
Organismal Systems;Immune system
Environmental Information Processing;Signal transduction
Human Diseases;Infectious diseases
Human Diseases;Neurodegenerative diseases
Metabolism;Metabolism of cofactors and vitamins
Organismal Systems;Development
Human Diseases;Infectious diseases
Organismal Systems;Endocrine system
Metabolism;Energy metabolism
Environmental Information Processing;Signal transduction
Metabolism;Amino acid metabolism
Human Diseases;Infectious diseases
Cellular Processes;Transport and catabolism
Metabolism;Glycan biosynthesis and metabolism
Human Diseases;Cancers
Organismal Systems;Endocrine system
Organismal Systems;Immune system
Organismal Systems;Endocrine system
Organismal Systems;Immune system
Cellular Processes;Cell communication
Human Diseases;Cancers
Organismal Systems;Immune system
Environmental Information Processing;Signal transduction
Genetic Information Processing;Folding, sorting and degradation
Metabolism;Overview
Environmental Information Processing;Signal transduction
Metabolism;Metabolism of other amino acids
Human Diseases;Infectious diseases
Cellular Processes;Cell communication
Organismal Systems;Immune system
Metabolism;Xenobiotics biodegradation and metabolism
Organismal Systems;Endocrine system
Organismal Systems;Nervous system
Cellular Processes;Cell communication
Human Diseases;Substance dependence
Metabolism;Amino acid metabolism
Environmental Information Processing;Signal transduction
Human Diseases;Cardiovascular diseases
Organismal Systems;Nervous system
Human Diseases;Infectious diseases
Human Diseases;Cancers
Metabolism;Xenobiotics biodegradation and metabolism
Metabolism;Metabolism of cofactors and vitamins
Organismal Systems;Circulatory system
Human Diseases;Endocrine and metabolic diseases
Human Diseases;Cancers
Human Diseases;Substance dependence
Metabolism;Metabolism of cofactors and vitamins
Organismal Systems;Immune system
Organismal Systems;Endocrine system
Human Diseases;Neurodegenerative diseases
Human Diseases;Infectious diseases
Human Diseases;Cancers
Metabolism;Metabolism of cofactors and vitamins
Metabolism;Carbohydrate metabolism
Organismal Systems;Nervous system
Organismal Systems;Endocrine system
Metabolism;Nucleotide metabolism
Organismal Systems;Digestive system
Environmental Information Processing;Signal transduction
Human Diseases;Infectious diseases
Environmental Information Processing;Signal transduction
Metabolism;Amino acid metabolism
Human Diseases;Infectious diseases
Human Diseases;Endocrine and metabolic diseases
Environmental Information Processing;Signal transduction
Organismal Systems;Endocrine system
Environmental Information Processing;Signal transduction
Environmental Information Processing;Signaling molecules and interaction
Human Diseases;Cancers
Environmental Information Processing;Signal transduction
Organismal Systems;Development
Human Diseases;Cancers
Metabolism;Lipid metabolism
Metabolism;Biosynthesis of other secondary metabolites
Metabolism;Glycan biosynthesis and metabolism
Human Diseases;Immune diseases
Human Diseases;Cancers
Metabolism;Metabolism of cofactors and vitamins
Metabolism;Metabolism of cofactors and vitamins
Environmental Information Processing;Signal transduction
Metabolism;Lipid metabolism
Human Diseases;Infectious diseases
Organismal Systems;Nervous system
Organismal Systems;Immune system
Human Diseases;Infectious diseases
Metabolism;Metabolism of other amino acids
Human Diseases;Infectious diseases
Organismal Systems;Circulatory system
Environmental Information Processing;Signal transduction
Metabolism;Glycan biosynthesis and metabolism
Environmental Information Processing;Signal transduction
Organismal Systems;Immune system
Human Diseases;Infectious diseases
Cellular Processes;Transport and catabolism
Environmental Information Processing;Signal transduction
Metabolism;Glycan biosynthesis and metabolism
Organismal Systems;Endocrine system
Metabolism;Lipid metabolism
Human Diseases;Cancers
Metabolism;Lipid metabolism
Metabolism;Carbohydrate metabolism
Metabolism;Amino acid metabolism
Environmental Information Processing;Signal transduction
Cellular Processes;Cell communication
Metabolism;Metabolism of other amino acids
Metabolism;Lipid metabolism
Metabolism;Glycan biosynthesis and metabolism
Metabolism;Glycan biosynthesis and metabolism
Metabolism;Glycan biosynthesis and metabolism
Organismal Systems;Digestive system
Metabolism;Metabolism of cofactors and vitamins
Human Diseases;Cancers
Organismal Systems;Excretory system
Human Diseases;Infectious diseases
Organismal Systems;Environmental adaptation
Organismal Systems;Nervous system
Metabolism;Lipid metabolism
Organismal Systems;Endocrine system
Metabolism;Lipid metabolism
Organismal Systems;Digestive system
Environmental Information Processing;Signal transduction
Metabolism;Lipid metabolism
Metabolism;Lipid metabolism
Organismal Systems;Digestive system
Environmental Information Processing;Signal transduction
Organismal Systems;Nervous system
Human Diseases;Immune diseases
Metabolism;Glycan biosynthesis and metabolism
Organismal Systems;Nervous system
Organismal Systems;Immune system
Organismal Systems;Nervous system
Organismal Systems;Sensory system
Organismal Systems;Immune system
Organismal Systems;Nervous system
Organismal Systems;Digestive system
Organismal Systems;Excretory system
Human Diseases;Substance dependence
Metabolism;Carbohydrate metabolism
Human Diseases;Infectious diseases
Metabolism;Carbohydrate metabolism
Organismal Systems;Nervous system
Organismal Systems;Sensory system
Human Diseases;Cardiovascular diseases
Environmental Information Processing;Signaling molecules and interaction
Human Diseases;Immune diseases
Human Diseases;Cancers
Organismal Systems;Digestive system
Organismal Systems;Digestive system
Environmental Information Processing;Signaling molecules and interaction
Organismal Systems;Sensory system
Human Diseases;Immune diseases
Environmental Information Processing;Signaling molecules and interaction
Organismal Systems;Immune system
Human Diseases;Endocrine and metabolic diseases
Human Diseases;Immune diseases
Human Diseases;Immune diseases
Human Diseases;Immune diseases
Metabolism;Amino acid metabolism
Metabolism;Metabolism of other amino acids
Metabolism;Glycan biosynthesis and metabolism
Metabolism;Glycan biosynthesis and metabolism
Metabolism;Biosynthesis of other secondary metabolites
Metabolism;Glycan biosynthesis and metabolism
Metabolism;Lipid metabolism
Environmental Information Processing;Membrane transport
Genetic Information Processing;Translation
Genetic Information Processing;Transcription
Genetic Information Processing;Transcription
Genetic Information Processing;Replication and repair
Genetic Information Processing;Transcription
Genetic Information Processing;Folding, sorting and degradation
Genetic Information Processing;Folding, sorting and degradation
Organismal Systems;Endocrine system
Genetic Information Processing;Replication and repair
Genetic Information Processing;Replication and repair
Genetic Information Processing;Replication and repair
Genetic Information Processing;Replication and repair
Genetic Information Processing;Replication and repair
Genetic Information Processing;Folding, sorting and degradation
Genetic Information Processing;Folding, sorting and degradation
Cellular Processes;Transport and catabolism
Organismal Systems;Endocrine system
Organismal Systems;Immune system
Organismal Systems;Excretory system
Organismal Systems;Digestive system
Organismal Systems;Digestive system
Human Diseases;Substance dependence
Human Diseases;Cancers
Human Diseases;Immune diseases
