Class name:,Total pathways:,Cluster_1,Cluster_2,Rest
Metabolism,66.0,19.0,27.0,17.0
Human Diseases,50.0,17.0,19.0,10.0
Organismal Systems,47.0,17.0,5.0,18.0
Environmental Information Processing,22.0,9.0,2.0,6.0
HD->Infectious diseases,20.0,7.0,9.0,4.0
EIP->Signal transduction,18.0,8.0,2.0,6.0
HD->Cancers,17.0,6.0,6.0,3.0
M->Lipid metabolism,13.0,2.0,3.0,8.0
M->Carbohydrate metabolism,13.0,2.0,9.0,1.0
OS->Immune system,13.0,5.0,3.0,3.0
OS->Endocrine system,11.0,7.0,1.0,2.0
Cellular Processes,11.0,3.0,5.0,2.0
OS->Nervous system,10.0,3.0,0.0,6.0
M->Amino acid metabolism,10.0,4.0,5.0,0.0
M->Glycan biosynthesis and metabolism,8.0,2.0,1.0,5.0
M->Metabolism of cofactors and vitamins,7.0,3.0,2.0,1.0
Genetic Information Processing,5.0,1.0,4.0,0.0
EIP->Signaling molecules and interaction,4.0,1.0,0.0,0.0
HD->Substance dependence,4.0,2.0,1.0,1.0
CP->Cell communication,4.0,2.0,0.0,1.0
M->Metabolism of other amino acids,4.0,1.0,1.0,2.0
CP->Cell growth and death,4.0,1.0,3.0,0.0
M->Overview,4.0,0.0,4.0,0.0
OS->Sensory system,3.0,0.0,0.0,2.0
M->Xenobiotics biodegradation and metabolism,3.0,2.0,1.0,0.0
HD->Endocrine and metabolic diseases,3.0,2.0,1.0,0.0
GIP->Translation,3.0,0.0,3.0,0.0
OS->Excretory system,3.0,0.0,1.0,1.0
CP->Transport and catabolism,2.0,0.0,1.0,1.0
GIP->Folding, sorting and degradation,2.0,1.0,1.0,0.0
OS->Circulatory system,2.0,1.0,0.0,1.0
HD->Cardiovascular diseases,2.0,0.0,0.0,1.0
HD->Immune diseases,2.0,0.0,0.0,1.0
OS->Development,2.0,1.0,0.0,1.0
HD->Neurodegenerative diseases,2.0,0.0,2.0,0.0
OS->Digestive system,2.0,0.0,0.0,2.0
M->Nucleotide metabolism,2.0,2.0,0.0,0.0
M->Energy metabolism,1.0,1.0,0.0,0.0
M->Metabolism of terpenoids and polyketides,1.0,0.0,1.0,0.0
CP->Cell motility,1.0,0.0,1.0,0.0
OS->Environmental adaptation,1.0,0.0,0.0,0.0
